{
  "images" : [
    {
      "filename" : "WhatsApp Image 2022-07-25 at 10.53.56 AM.jpeg",
      "idiom" : "universal",
      "scale" : "1x"
    },
    {
      "filename" : "WhatsApp Image 2022-07-25 at 10.53.56 AM-1.jpeg",
      "idiom" : "universal",
      "scale" : "2x"
    },
    {
      "filename" : "WhatsApp Image 2022-07-25 at 10.53.56 AM-2.jpeg",
      "idiom" : "universal",
      "scale" : "3x"
    }
  ],
  "info" : {
    "author" : "xcode",
    "version" : 1
  }
}
